,birth_year
0,1918
1,1923
2,1925
3,1926
4,1927
5,1928
6,1929
7,1931
8,1933
9,1934
10,1936
11,1937
12,1938
13,1939
14,1940
15,1941
16,1942
17,1943
18,1944
19,1945
20,1946
21,1947
22,1948
23,1949
24,1950
25,1951
26,1952
27,1953
28,1954
29,1955
30,1956
31,1957
32,1958
33,1959
34,1960
35,1961
36,1962
37,1963
38,1964
39,1965
40,1966
41,1967
42,1968
43,1969
44,1970
45,1971
46,1972
47,1973
48,1974
49,1975
50,1976
51,1977
52,1978
53,1979
54,1980
55,1981
56,1982
57,1983
58,1984
59,1985
60,1986
61,1987
62,1988
63,1989
64,1990
65,1991
66,1992
67,1993
68,1994
69,1995
70,1996
71,1997
72,1998
73,1999
74,2000
75,2001
76,2002
77,2003
78,2004
79,2005
80,2006
81,2007
82,2008
83,2009
84,2010
85,2011
86,2012
87,2013
88,2014
89,2015
90,2016
91,2017
92,2018
