,city,num_patients
0,Hamilton,1938
1,Toronto,317
2,Burlington,276
3,Brantford,147
4,Ancaster,117
5,Stoney Creek,107
6,Cambridge,79
7,Dundas,79
8,Milton,65
9,Paris,58
10,Grimsby,55
11,Timmins,53
12,Ottawa,51
13,Halifax,50
14,Oakville,44
15,Sarnia,43
16,Fruitland,42
17,Barrie,39
18,Delhi,37
19,St. Catharines,35
20,Walnut Grove,34
21,Windsor,34
22,Dunton,32
23,Pickering,32
24,Simcoe,31
25,Waterford,30
26,Red River,29
27,Brampton,28
28,Kingston,26
29,Brockville,23
30,Calgary,23
31,Orangeville,23
32,Beamsville,22
33,Victoria,21
34,Carlisle,20
35,Montreal,20
36,Mississauga,19
37,Thunder Bay,19
38,Guelph,18
39,Peterborough,18
40,Hepworth,17
41,London,17
42,Caledonia,16
43,Kelowna,16
44,Bancroft,15
45,Niagara Falls,15
46,Troy,15
47,Beaverton,14
48,Carisle,14
49,Orillia,14
50,Smithville,14
51,Whitby,14
52,Saskatoon,13
53,Ajax,12
54,Vancouver,12
55,Elmira,10
56,Athens,9
57,North York,9
58,Port Dover,9
59,St. Johns,9
60,Dunnville,8
61,Marcam,8
62,Selkirk,8
63,Kapuskasing,7
64,Milgrove,7
65,Tyndale,7
66,Highland,6
67,Misty,6
68,Port Hawkesbury,6
69,Edmonton,5
70,Northbay,5
71,Odessa,5
72,Cayuga,4
73,Elmwood,4
74,Fonthill,4
75,Inverness,4
76,Bartonville,3
77,Chicoutimi,3
78,Hargersville,3
79,Newmarket,3
80,Oshawa,3
81,Waterloo,3
82,Winona,3
83,Brandon,2
84,Georgetown,2
85,Red Deer,2
86,Scarborough,2
87,Stainer,2
88,Tuscorora,2
89,Unionville,2
90,Linton,1
91,Rockford,1
92,Ureterburg,1
